{
	"info": {
		"_postman_id": "bc6fc45d-c57e-4639-b106-17634b38bdf5",
		"name": "Atividade",
		"schema": "https://schema.getpostman.com/json/collection/v2.1.0/collection.json"
	},
	"item": [
		{
			"name": "MetodoGet",
			"request": {
				"method": "GET",
				"header": []
			},
			"response": []
		},
		{
			"name": "Post",
			"request": {
				"method": "GET",
				"header": []
			},
			"response": []
		}
	]
}